<?xml version="1.0" encoding="UTF-8"?>
<svg enable-background="new 0 0 512 512" version="1.1" viewBox="0 0 512 512" xml:space="preserve" xmlns="http://www.w3.org/2000/svg">
	<path d="m402.35 381.06h-203.32l-11.806-47.224h266.59l58.188-232.75h-382.96l-20.156-80.625h-108.88v33.4h82.804l82.208 328.83c-24.053 5.971-41.938 27.737-41.938 53.611 0 30.461 24.781 55.242 55.241 55.242 30.459 0 55.241-24.781 55.241-55.242 0-7.755-1.613-15.138-4.511-21.841h122.58c-2.897 6.703-4.511 14.086-4.511 21.841 0 30.461 24.781 55.242 55.241 55.242 30.459 0 55.241-24.781 55.241-55.242-1e-3 -30.458-24.782-55.24-55.242-55.24zm-115.32-80.624h-37.08l-8.284-66.275h45.365v66.275zm124.88-165.95h57.31l-16.568 66.275h-49.026l8.284-66.275zm-12.459 99.676h44.85l-16.568 66.275h-36.566l8.284-66.275zm-79.025-99.676h57.824l-8.284 66.275h-49.539v-66.275zm0 99.675h45.365l-8.284 66.275h-37.08v-66.275zm-33.399-99.675v66.275h-49.539l-8.284-66.275h57.823zm-149.64 0h58.158l8.284 66.275h-49.873l-16.569-66.275zm24.919 99.675h45.699l8.284 66.275h-37.414l-16.569-66.275zm16.008 223.98c-12.043 0-21.841-9.798-21.841-21.842 0-12.043 9.798-21.841 21.841-21.841s21.841 9.798 21.841 21.841c0 12.044-9.798 21.842-21.841 21.842zm224.04 0c-12.043 0-21.841-9.798-21.841-21.842 0-12.043 9.798-21.841 21.841-21.841s21.841 9.798 21.841 21.841c0 12.044-9.798 21.842-21.841 21.842z"/>
</svg>
